…
- For all available Zipcodes, compare rental prices in Jan.2021 to
  rental prices in Jan.2020.

``` r
  temp = Merged_longer |> filter( (year=="2020"|year=="2021") & month==c("1")) |> group_by(year) |> select(zip_code, year, rental_price) |> rename("January_of_Year"="year")

  table_zip_Jan = temp |> pivot_wider(names_from=January_of_Year, values_from=rental_price) |> rename("Jan.2020"="2020", "Jan.2021"="2021") |> arrange(zip_code) |>
                  mutate(absolute_change = Jan.2021-Jan.2020, relative_percentage_change = (Jan.2021 - Jan.2020) / Jan.2020 * 100)
  table_zip_Jan
```

    ## # A tibble: 320 × 5
    ##    zip_code Jan.2020 Jan.2021 absolute_change relative_percentage_change
    ##       <int>    <dbl>    <dbl>           <dbl>                      <dbl>
    ##  1    10001    4108.    3398.           -710.                      -17.3
    ##  2    10002    3645.    2935.           -710.                      -19.5
    ##  3    10003    3570.    2897.           -673.                      -18.8
    ##  4    10004       0        0               0                       NaN  
    ##  5    10005    3408.    2918.           -490.                      -14.4
    ##  6    10006       0        0               0                       NaN  
    ##  7    10007       0        0               0                       NaN  
    ##  8    10008       0        0               0                       NaN  
    ##  9    10009       0        0               0                       NaN  
    ## 10    10010    3697.    3012.           -685.                      -18.5
    ## # ℹ 310 more rows
…
Using the US House Price dataset, compute the average house price within
each Zipcode over each month in 2023.

``` r
  US_Housing_2023_longer = US_Housing_2023 %>% pivot_longer(cols=contains("2023"), names_to="date", values_to="rental_price") %>% separate(col=date, into=c("year", "month", "day"), sep="/")
  temp5 = US_Housing_2023_longer %>% group_by(zip_code, month) %>% summarise(mean_price = mean(rental_price), .groups = "keep") %>% mutate(month=as.numeric(month)) %>% arrange(zip_code, month)
  average_price_US_2023 = temp5 %>% pivot_wider(names_from = month, values_from = mean_price)
                          colnames(average_price_US_2023)[2:13] <- c("Jan", "Feb", "Mar", "Apr", "May", "Jun", "Jul", "Aug", "Sep", "Oct", "Nov", "Dec")
  average_price_US_2023
```

    ## # A tibble: 19,710 × 13
    ## # Groups:   zip_code [19,710]
    ##    zip_code     Jan     Feb     Mar     Apr     May     Jun    Jul    Aug    Sep
    ##       <int>   <dbl>   <dbl>   <dbl>   <dbl>   <dbl>   <dbl>  <dbl>  <dbl>  <dbl>
    ##  1     1001 295063. 295956. 297317. 299400. 301701. 303843. 3.06e5 3.09e5 3.11e5
    ##  2     1002 462143. 464716. 467443. 470950. 474375. 478490. 4.82e5 4.86e5 4.90e5
    ##  3     1005 344369. 345235. 346890. 349667. 353451. 357738. 3.62e5 3.67e5 3.70e5
    ##  4     1007 407481. 408192. 409311. 411580. 414830. 418602. 4.22e5 4.25e5 4.28e5
    ##  5     1008 326128. 326131. 326802. 328983. 331695. 334908. 3.38e5 3.41e5 3.44e5
    ##  6     1010 372567. 373061. 374676. 377490. 380123. 383334. 3.86e5 3.89e5 3.92e5
    ##  7     1011 256840. 256187. 256334. 257678. 259915. 262991. 2.66e5 2.69e5 2.70e5
    ##  8     1012 356251. 356260. 356965. 358859. 360887. 363747. 3.66e5 3.69e5 3.70e5
    ##  9     1013 270347. 270910. 272397. 274650. 277105. 279542. 2.82e5 2.84e5 2.85e5
    ## 10     1020 280206. 280517. 281653. 283837. 286399. 289135. 2.92e5 2.94e5 2.96e5
    ## # ℹ 19,700 more rows
    ## # ℹ 3 more variables: Oct <dbl>, Nov <dbl>, Dec <dbl>
…
